===============================================================================
LocalFuzzyHistogramHyperbolization Script Changelog
===============================================================================

-------------------------------------------------------------------------------
2021.05.17 - v1.11

- New SVG icon.

- PixInsight core >= 1.8.8-8 required.

-------------------------------------------------------------------------------
2018.10.26 - v1.10

- This script is now part of the official PixInsight 1.8.6 distribution.

-------------------------------------------------------------------------------
2017.11.15 - v1.02

- Add PCLL license headers.
- Fix several typos and layout issues.
- First official release version.

-------------------------------------------------------------------------------
2017.11.13 - v1.01

- Initial version available on official open-source repositories.
