<?xml version="1.0" encoding="UTF-8"?>
<svg width="512" height="512" version="1.1" viewBox="0 0 135.47 135.47" xmlns="http://www.w3.org/2000/svg">
<defs>
<linearGradient id="l" x1="257" x2="256.85" y1="-96.577" y2="-70.053" gradientTransform="matrix(2.0389 0 0 3.2039 -456.1 347.41)" gradientUnits="userSpaceOnUse">
<stop stop-color="#08044d" offset="0"/>
<stop stop-color="#4d4cd2" offset="1"/>
</linearGradient>
<linearGradient id="g" x1="14.81" x2="14.971" y1="105.72" y2="21.632" gradientTransform="matrix(2.8275 0 0 1.0327 -17.905 -1.5493)" gradientUnits="userSpaceOnUse">
<stop offset="0"/>
<stop stop-color="#e6e6e6" offset="1"/>
</linearGradient>
<linearGradient id="h" x1="84.614" x2="85.877" y1="41.558" y2="87.6" gradientTransform="matrix(.86322 0 0 1.1489 12.554 -5.076)" gradientUnits="userSpaceOnUse">
<stop stop-color="#0df" stop-opacity=".89804" offset="0"/>
<stop stop-color="#e4f3fe" stop-opacity=".2357" offset="1"/>
</linearGradient>
<linearGradient id="j" x1="96.221" x2="116.19" y1="18.311" y2="66.576" gradientTransform="matrix(.9853 0 0 1.0256 -.047382 -1.7302)" gradientUnits="userSpaceOnUse">
<stop stop-color="#daff00" stop-opacity=".88235" offset="0"/>
<stop stop-color="#e1f269" stop-opacity=".42792" offset="1"/>
</linearGradient>
<linearGradient id="i" x1="50.844" x2="79.82" y1="24.005" y2="74.809" gradientTransform="matrix(1.1158 0 0 .93497 -9.907 5.3826)" gradientUnits="userSpaceOnUse">
<stop stop-color="#64ff00" offset="0"/>
<stop stop-color="#c3edce" stop-opacity=".15294" offset="1"/>
</linearGradient>
<linearGradient id="k" x1="-107.08" x2="-106.89" y1="7.3653" y2="33.427" gradientTransform="matrix(1.1105 0 0 1.4203 10.522 66.748)" gradientUnits="userSpaceOnUse">
<stop stop-color="#ff3d20" offset="0"/>
<stop stop-color="#e36fa7" stop-opacity=".50685" offset="1"/>
</linearGradient>
</defs>
<path d="M8.3962 8.3962h118.67v118.67H8.3962z" fill="url(#l)" stroke="#000" stroke-linejoin="round" stroke-width="4.092" paint-order="fill markers stroke"/>
<path transform="matrix(1.7821 0 0 1.4448 278.29 -49.618)" d="m-126.87 75.608h37.209v41.33h-37.209z" fill="url(#k)" fill-rule="evenodd"/>
<path transform="translate(-.7292)" d="M73.196 16.134H114.7v51.17H73.196z" fill="url(#j)" fill-rule="evenodd"/>
<path transform="translate(-.7292)" d="M45.426 26.677h35.067v48.821H45.426z" fill="url(#i)" fill-rule="evenodd"/>
<path transform="translate(-.7292)" d="M64.935 39.509h42.291v65.139H64.935z" fill="url(#h)" fill-rule="evenodd"/>
<path d="M13.088 13.088h22.444v109.29H13.088z" fill="url(#g)" fill-rule="evenodd" stroke="#aca793" stroke-width="5.2917"/>
</svg>
