<?xml version="1.0" encoding="UTF-8"?>
<svg width="512" height="512" version="1.1" viewBox="0 0 135.47 135.47" xmlns="http://www.w3.org/2000/svg">
<defs>
<linearGradient id="b" x1="25.592" x2="147.89" y1="180.56" y2="301.5" gradientTransform="translate(-18.773 -172.38)" gradientUnits="userSpaceOnUse">
<stop offset="0"/>
<stop stop-color="#b1afd4" offset="1"/>
</linearGradient>
<linearGradient id="a" x1="60.344" x2="101.5" y1="52.605" y2="52.976" gradientTransform="matrix(.86042 0 0 .87753 -28.144 49.381)" gradientUnits="userSpaceOnUse">
<stop stop-color="#ff0e00" offset="0"/>
<stop stop-color="#fafe00" offset=".28917"/>
<stop stop-color="#10ff00" offset=".40927"/>
<stop stop-color="#01f" offset=".90138"/>
<stop stop-color="#00f" offset="1"/>
</linearGradient>
<linearGradient id="h" x1="18.653" x2="56.003" y1="-51.109" y2="-51.241" gradientTransform="translate(-8.7313 78.052)" gradientUnits="userSpaceOnUse">
<stop stop-color="#0e0000" offset="0"/>
<stop stop-color="#f00" offset=".4379"/>
<stop offset="1"/>
</linearGradient>
<linearGradient id="d" x1="15.081" x2="56.003" y1="-51.241" y2="-51.241" gradientTransform="translate(32.191 78.052)" gradientUnits="userSpaceOnUse">
<stop offset="0"/>
<stop stop-color="#001f00" offset=".125"/>
<stop stop-color="#0f0" offset=".51793"/>
<stop stop-color="#017f00" offset=".74403"/>
<stop offset="1"/>
</linearGradient>
<linearGradient id="g" x1="15.081" x2="55.739" y1="-51.241" y2="-50.976" gradientTransform="translate(73.113 78.052)" gradientUnits="userSpaceOnUse">
<stop stop-color="#00004a" offset="0"/>
<stop stop-color="#006dff" offset=".50811"/>
<stop stop-color="#000028" offset="1"/>
</linearGradient>
<linearGradient id="e" x1="18.653" x2="56.003" y1="-51.109" y2="-51.241" gradientTransform="translate(-8.731 159.9)" gradientUnits="userSpaceOnUse">
<stop offset="0"/>
<stop stop-color="#fff" offset=".434"/>
<stop offset="1"/>
</linearGradient>
<linearGradient id="c" x1="15.081" x2="56.003" y1="-51.241" y2="-51.241" gradientTransform="translate(32.191 159.9)" gradientUnits="userSpaceOnUse">
<stop offset="0"/>
<stop offset=".125"/>
<stop stop-color="#fff" offset=".52283"/>
<stop offset=".94259"/>
<stop offset="1"/>
</linearGradient>
<linearGradient id="f" x1="15.081" x2="55.739" y1="-51.241" y2="-50.976" gradientTransform="translate(73.113 159.9)" gradientUnits="userSpaceOnUse">
<stop offset="0"/>
<stop stop-color="#fff" offset=".52523"/>
<stop offset="1"/>
</linearGradient>
</defs>
<g>
<rect x="6.35" y="6.35" width="122.77" height="122.77" fill="url(#b)" opacity=".998"/>
<g fill-rule="evenodd">
<rect x="6.35" y="6.35" width="40.922" height="40.922" fill="url(#h)"/>
<rect x="47.272" y="6.35" width="40.922" height="40.922" fill="url(#d)"/>
<rect x="88.194" y="6.35" width="40.922" height="40.922" fill="url(#g)"/>
</g>
<g fill-rule="evenodd">
<rect x="6.3503" y="88.195" width="40.922" height="40.922" fill="url(#e)"/>
<rect x="47.272" y="88.195" width="40.922" height="40.922" fill="url(#c)"/>
<rect x="88.194" y="88.195" width="40.922" height="40.922" fill="url(#f)"/>
</g>
<g stroke="#fff" stroke-miterlimit="1" stroke-width="6.35">
<path d="m118.31 63.427h-44.057c-0.70955 0-1.2853-0.58717-1.2853-1.3108v-44.931c0-0.72363 0.57575-1.3108 1.2853-1.3108h44.055c0.70954 0 1.2853 0.58717 1.2853 1.3108v44.929c2e-3 0.7257-0.57372 1.3129-1.2833 1.3129z" fill="#00f"/>
<path d="m99.272 82.149h-44.057c-0.70954 0-1.2853-0.58716-1.2853-1.3108v-44.931c0-0.72363 0.57575-1.3108 1.2853-1.3108h44.055c0.70954 0 1.2853 0.58717 1.2853 1.3108v44.929c2e-3 0.7257-0.57372 1.3129-1.2833 1.3129z" fill="#0f0"/>
<path d="m80.236 100.87h-44.057c-0.70955 0-1.2853-0.58716-1.2853-1.3108v-44.931c0-0.72363 0.57575-1.3108 1.2853-1.3108h44.055c0.70953 0 1.2853 0.58717 1.2853 1.3108v44.929c2e-3 0.72568-0.57372 1.3128-1.2833 1.3128z" fill="#f00"/>
<path d="m61.217 119.59h-44.057c-0.70955 0-1.2853-0.58716-1.2853-1.3108v-44.931c0-0.72363 0.57575-1.3108 1.2853-1.3108h44.055c0.70953 0 1.2853 0.58717 1.2853 1.3108v44.929c2e-3 0.72569-0.57372 1.3128-1.2833 1.3128z" fill="url(#a)"/>
</g>
</g>
</svg>
