<?xml version="1.0" encoding="UTF-8"?>
<svg width="512" height="512" version="1.1" viewBox="0 0 135.47 135.47" xmlns="http://www.w3.org/2000/svg">
<defs>
<linearGradient id="c" x1="257" x2="256.85" y1="-96.577" y2="-70.053" gradientTransform="matrix(.93121 0 0 1.5343 -194.18 198.71)" gradientUnits="userSpaceOnUse">
<stop stop-color="#08044d" offset="0"/>
<stop stop-color="#4d4cd2" offset="1"/>
</linearGradient>
<linearGradient id="b" x1="55.153" x2="100.81" y1="76.118" y2="30.426" gradientTransform="matrix(.84675 0 0 .84132 -21.475 21.809)" gradientUnits="userSpaceOnUse">
<stop stop-color="#7900e0" offset="0"/>
<stop stop-color="#fc4c38" offset="1"/>
</linearGradient>
<linearGradient id="a" x1="57.234" x2="104.38" y1="78.096" y2="27.079" gradientTransform="matrix(.86284 0 0 .84132 -22.616 18.708)" gradientUnits="userSpaceOnUse">
<stop stop-color="#0000d7" stop-opacity=".67623" offset="0"/>
<stop stop-color="#03e200" stop-opacity=".83529" offset=".70515"/>
<stop stop-color="#68ff07" offset="1"/>
</linearGradient>
</defs>
<g transform="translate(-149.98 -.68036)">
<g transform="matrix(1.9795 0 0 1.9795 144.81 -56.025)" stroke-width=".79017">
<g transform="matrix(1.1061 0 0 1.0549 -4.6714 -2.1486)">
<g transform="translate(-7.5424 -3.1506)">
<rect x="17.964" y="36.363" width="54.202" height="56.83" fill="url(#c)" opacity=".999" stroke="#000" stroke-linejoin="round" stroke-width="1.9138" style="paint-order:fill markers stroke"/>
<path d="m52.202 89.123h-29.093c-0.69827 0-1.2649-0.56294-1.2649-1.2567v-43.077c0-0.69376 0.5666-1.2567 1.2649-1.2567h29.093z" fill="url(#b)" opacity=".85828" stroke="#6d6e71" stroke-miterlimit="1" stroke-width="2.356"/>
<path d="m21.845 81.333 13.127-14.307c0.42267-0.50245 1.29-0.50029 1.7105 0.0023l4.9444 5.8676-5.9659 6.7906 0.75729 0.9402 15.263-17.45 0.52119-0.59657 1.52e-4 26.543h-29.113c-0.4453 0.0095-1.1973-0.34535-1.2442-1.201z" fill="#d4aa00" opacity=".85828"/>
<path d="m35.109 48.969c1.3869-0.0034 1.6825 4.6128 2.376 5.2058 0.69346 0.59299 5.4749-0.50076 5.7061 0.65229s-3.7209 3.0372-4.1172 3.9597c-0.3963 0.92245 1.8557 4.827 1.0301 5.5188-0.82558 0.69185-3.9714-2.682-4.995-2.682-1.0237 0-4.1035 3.1761-4.929 2.5832-0.82558-0.593 1.2283-4.6209 0.96411-5.4774-0.26418-0.85652-4.3687-2.7821-4.1171-3.9022 0.25157-1.1201 4.8474-0.02633 5.6069-0.58636 0.75949-0.56011 1.3193-5.2388 2.4751-5.2717" fill="#fff" fill-rule="evenodd" opacity=".998"/>
<path d="m66.998 86.022h-19.232l3.6e-4 -45.59 19.23-4.95e-4c0.71154-1.8e-5 1.2889 0.56294 1.2889 1.2567v43.075c0.0017 0.69574-0.57534 1.2587-1.2869 1.2587z" fill="url(#a)" opacity=".61938" stroke="#6d6e71" stroke-miterlimit="1" stroke-width="2.356"/>
<path d="m47.767 67.653 4.9303-5.6388c0.4599-0.45988 1.527-0.40558 1.9869 0.0543l13.371 13.392c0.14852 0.14931 0.22996 0.32848 0.22995 0.51363l-3.48e-4 8.8537c-0.0543 0.77167-0.69008 1.1726-1.2271 1.1938h-19.292z" fill="#ffd5d5" fill-opacity=".56757" opacity=".62518"/>
<g transform="matrix(0 1.3679 -.93982 0 52.061 44.442)" fill="#fff" stroke="#fff" stroke-width="1.09">
<path d="m26.858 29.461v-1.4459h1.9513v-2.1694h1.3012v3.6154zm-9.2282 0v-1.4459h5.9677v1.4459zm-9.2272 0v-1.4459h5.9677v1.4459zm-6.5129 0v-3.6154h1.3012v2.1694h1.9513v1.4459zm26.92-6.5375v-5.4629h1.3012v5.4629zm-26.92 0v-5.4629h1.3012v5.4629zm26.92-8.3839v-5.4629h1.3012v5.4629zm-26.92 0v-5.4629h1.3012v5.4629zm26.92-8.385v-2.1694h-1.9513v-1.4459h3.2524v3.6154zm-26.92 0v-3.6154h3.2524v1.4459h-1.9513v2.1694zm15.74-2.1694v-1.4459h5.9677v1.4459zm-9.2272 0v-1.4459h5.9677v1.4459z" fill="#fff" stroke="#fff" stroke-width="1.09"/>
</g>
</g>
</g>
</g>
</g>
</svg>
