<?xml version="1.0" encoding="UTF-8"?>
<svg width="512" height="512" version="1.1" viewBox="0 0 135.47 135.47" xmlns="http://www.w3.org/2000/svg">
<defs>
<linearGradient id="a" x1="257" x2="256.85" y1="-96.577" y2="-70.053" gradientTransform="matrix(2.0389 0 0 3.2039 -456.1 347.41)" gradientUnits="userSpaceOnUse">
<stop stop-color="#08044d" offset="0"/>
<stop stop-color="#4d4cd2" offset="1"/>
</linearGradient>
<marker id="b" overflow="visible" orient="auto">
<path transform="scale(-.2)" d="m5.77 0-8.65 5v-10l8.65 5z" fill="#0f0" fill-rule="evenodd" stroke="#0f0" stroke-width="1pt"/>
</marker>
<marker id="c" overflow="visible" orient="auto">
<path transform="scale(-.2)" d="m5.77 0-8.65 5v-10z" fill="#0f0" fill-rule="evenodd" stroke="#0f0" stroke-width="1pt"/>
</marker>
</defs>
<text transform="translate(292.87 1.1456)" fill="#000000" font-family="Pristina" font-size="5.9531px" letter-spacing="0px" word-spacing="0px" style="line-height:125%;shape-inside:url(#rect3412);white-space:pre" xml:space="preserve"/>
<text transform="translate(292.87 1.1456)" fill="#000000" font-family="Pristina" font-size="5.9531px" letter-spacing="0px" word-spacing="0px" style="line-height:125%;shape-inside:url(#rect3412-9);white-space:pre" xml:space="preserve"/>
<rect x="8.3962" y="8.3962" width="118.67" height="118.67" fill="url(#a)" stroke="#000" stroke-linejoin="round" stroke-width="4.0923" style="paint-order:fill markers stroke"/>
<g transform="matrix(1 0 0 .98383 -186.87 -.44156)" fill="#b380ff" fill-rule="evenodd" stroke-width="1.0082">
<rect x="222.44" y="48.39" width="12.171" height="65.208"/>
<rect x="239.82" y="20.907" width="12.171" height="92.691"/>
<rect x="257.21" y="26.061" width="12.171" height="87.537"/>
<rect x="274.6" y="15.105" width="12.171" height="98.493"/>
</g>
<path d="m27.21 112.38s8.1551-0.0564 13.846-14.922c5.6907-14.865 7.9484-64.862 25.388-64.825 16.871 0.03568 16.963 42.702 25.727 64.388 4.3661 10.803 13.308 14.305 13.308 14.305" fill="none" stroke="#fff" stroke-linecap="round" stroke-width="6.7813"/>
<g transform="matrix(1.0001 0 0 .99999 -.009172 .00060169)" fill="none" stroke="#0f0" stroke-linecap="round" stroke-width="5.6017">
<path d="m21.329 22.381-0.01513 91.753 91.764 0.0113" marker-start="url(#b)"/>
<path d="m113.08 114.15-91.753 0.0151-0.0113-91.764" marker-start="url(#c)"/>
</g>
<path d="m46.727 111.32 0.02339-12.297 4.2021 4.78e-4 0.0045-12.391h5.2579v-11.544h5.9373l-0.0099 15.287h4.9304v-19.947l6.2308-0.02339-0.02339 28.553h4.7882l-0.02343-10.801h5.5825v13.654h5.113v9.5098z" fill="#fff" fill-rule="evenodd" opacity=".999"/>
</svg>
