<?xml version="1.0" encoding="UTF-8"?>
<svg width="512" height="512" version="1.1" viewBox="0 0 135.47 135.47" xmlns="http://www.w3.org/2000/svg">
<defs>
<linearGradient id="c" x1="257" x2="256.85" y1="-96.577" y2="-70.053" gradientTransform="matrix(2.0389 0 0 3.2039 -456.1 347.41)" gradientUnits="userSpaceOnUse">
<stop stop-color="#08044d" offset="0"/>
<stop stop-color="#4d4cd2" offset="1"/>
</linearGradient>
<linearGradient id="b" x1="55.153" x2="100.81" y1="76.118" y2="30.426" gradientTransform="matrix(1.8539 0 0 1.7569 -77.955 -21.995)" gradientUnits="userSpaceOnUse">
<stop stop-color="#7900e0" offset="0"/>
<stop stop-color="#fc4c38" offset="1"/>
</linearGradient>
<linearGradient id="a" x1="57.234" x2="104.38" y1="78.096" y2="27.079" gradientTransform="matrix(1.8892 0 0 1.7569 -80.452 -28.471)" gradientUnits="userSpaceOnUse">
<stop stop-color="#0000d7" stop-opacity=".67623" offset="0"/>
<stop stop-color="#03e200" stop-opacity=".83529" offset=".70515"/>
<stop stop-color="#68ff07" offset="1"/>
</linearGradient>
</defs>
<rect x="8.3962" y="8.3962" width="118.67" height="118.67" fill="url(#c)" opacity=".999" stroke="#000" stroke-linejoin="round" stroke-width="4.0923" style="paint-order:fill markers stroke"/>
<g>
<path d="m83.361 118.57h-63.698c-1.5289 0-2.7694-1.1756-2.7694-2.6243v-89.955c0-1.4488 1.2406-2.6243 2.7694-2.6243h63.698z" fill="url(#b)" opacity=".85828" stroke="#6d6e71" stroke-miterlimit="1" stroke-width="2.356"/>
<path d="m16.893 102.31 28.742-29.876c0.92544-1.0492 2.8245-1.0447 3.7452 0.0048l10.826 12.253-13.062 14.18 1.6581 1.9634 33.417-36.439 1.1411-1.2458 3.32e-4 55.428h-63.743c-0.97498 0.0198-2.6214-0.72117-2.7242-2.508z" fill="#d4aa00" opacity=".85828"/>
<path d="m45.934 34.722c3.0367-0.0071 3.6839 9.6327 5.2022 10.871 1.5183 1.2383 11.987-1.0457 12.493 1.3621 0.50607 2.4078-8.1468 6.3425-9.0145 8.2688-0.86768 1.9263 4.0631 10.08 2.2555 11.525-1.8076 1.4448-8.6953-5.6006-10.937-5.6006-2.2413 0-8.9846 6.6326-10.792 5.3943-1.8076-1.2383 2.6893-9.6496 2.1109-11.438-0.57842-1.7886-9.5652-5.8098-9.0144-8.1489 0.5508-2.3391 10.613-0.05498 12.276-1.2245 1.6629-1.1697 2.8887-10.94 5.4192-11.009" fill="#fff" fill-rule="evenodd" opacity=".998"/>
<g transform="translate(-50.196 11.767)" fill="#fff" stroke-miterlimit="1" stroke-width="0">
<rect x="133.56" y="11.603" width="6.35" height="13.834"/>
<rect x="133.56" y="31.993" width="6.35" height="13.834"/>
<rect x="133.56" y="52.288" width="6.35" height="13.834"/>
<rect x="133.56" y="72.63" width="6.35" height="13.834"/>
<rect x="133.56" y="92.973" width="6.35" height="13.834"/>
</g>
</g>
<path d="m115.76 112.1h-42.109l7.88e-4 -95.203 42.104-1e-3c1.5579-3.7e-5 2.8221 1.1756 2.8221 2.6243v89.951c4e-3 1.4529-1.2597 2.6284-2.8176 2.6284z" fill="url(#a)" opacity=".61938" stroke="#6d6e71" stroke-miterlimit="1" stroke-width="2.356"/>
<path d="m73.649 73.738 10.795-11.775c1.007-0.96034 3.3434-0.84695 4.3503 0.11339l29.275 27.966c0.32518 0.31179 0.50349 0.68596 0.50348 1.0726l-7.7e-4 18.489c-0.11889 1.6114-1.5109 2.4487-2.6867 2.493h-42.239z" fill="#ffd5d5" fill-opacity=".56757" opacity=".62518"/>
<g transform="translate(-66.26 5.2907)" fill="#0ff" stroke-miterlimit="1" stroke-width="0">
<rect x="133.56" y="11.603" width="6.35" height="13.834"/>
<rect x="133.56" y="31.993" width="6.35" height="13.834"/>
<rect x="133.56" y="52.288" width="6.35" height="13.834"/>
<rect x="133.56" y="72.63" width="6.35" height="13.834"/>
<rect x="133.56" y="92.973" width="6.35" height="13.834"/>
</g>
</svg>
